<?xml version="1.0" encoding="UTF-8"?>
<session version="1.0">
<refactoring comment="Delete 4 resources" deleteContents="false" description="Delete 4 resources" element1="/GALE_AD7291_test/AD7291.c" element2="/GALE_AD7291_test/AD7291.h" element3="/GALE_AD7291_test/Communication.c" element4="/GALE_AD7291_test/Communication.h" flags="7" id="org.eclipse.ltk.core.refactoring.delete.resources" resources="4" stamp="1519158927535"/>
</session>